<?xml version="1.0" encoding="iso-8859-1"?>
<!-- Generator: Adobe Illustrator 22.1.0, SVG Export Plug-In . SVG Version: 6.00 Build 0)  -->
<svg version="1.1" id="Capa_1" xmlns="http://www.w3.org/2000/svg" xmlns:xlink="http://www.w3.org/1999/xlink" x="0px" y="0px"
	 viewBox="-43 147 500 500" style="enable-background:new -43 147 500 500;" xml:space="preserve">
<g>
	<path d="M58.025,348.71h64.708c6.761,0,12.072-5.312,12.072-12.072l0,0c0-6.761-5.312-12.072-12.072-12.072H58.025
		c-6.761,0-12.072,5.312-12.072,12.072l0,0C45.953,342.915,51.264,348.71,58.025,348.71z"/>
	<path d="M58.025,397.483h64.708c6.761,0,12.072-5.312,12.072-12.072l0,0c0-6.761-5.312-12.072-12.072-12.072H58.025
		c-6.761,0-12.072,5.312-12.072,12.072l0,0C45.953,392.171,51.264,397.483,58.025,397.483z"/>
	<path d="M-11.995,303.801v76.298c0,14.97,6.278,28.491,15.936,38.149s23.179,15.936,38.149,15.936h37.183v68.571v0.483
		c0,36.7,14.97,70.503,39.115,94.648S175.852,637,213.035,637c36.7,0,70.02-14.97,94.165-38.632
		c21.73-21.73,36.217-50.221,39.115-82.575l0,0c13.521-0.966,25.111-3.863,35.734-8.209c20.282-8.209,35.252-21.247,44.427-38.149
		c9.175-16.419,13.038-36.217,11.107-57.465c-0.966-13.521-4.829-28.008-10.624-42.495c-5.795-14.97-14.004-29.457-22.696-43.461
		c0-0.483-0.483-0.483-0.483-0.966c-7.243-11.107-15.453-21.73-23.662-31.871c-20.282-23.179-42.978-42.012-62.777-50.704h-0.483
		h-0.483c-0.483,0-0.966-0.483-1.449-0.483c0,0,0,0-0.483,0c-0.483,0-1.449,0-1.932,0l0,0c-0.483,0-1.449,0-1.932,0c0,0,0,0-0.483,0
		c-0.483,0-1.449,0.483-1.932,0.483c0,0,0,0-0.483,0c-0.483,0.483-0.966,0.483-1.932,0.966l0,0l0,0
		c-0.483,0.483-0.966,0.966-1.449,1.449c0,0,0,0.483-0.483,0.483c-0.483,0.483-0.483,0.966-0.966,1.449c0,0,0,0.483-0.483,0.483
		c0,0.483-0.483,0.483-0.483,0.966c0,0,0,0,0,0.483c-0.483,0.966-0.483,1.932-0.483,2.897c0,0.483,0,0.483,0,0.966
		c0,0.966,0,1.449,0,2.414v0.483c7.243,39.598-12.555,64.708-31.871,88.37l0,0c-0.483,0.483-0.966,1.449-1.932,1.932
		c-7.243,8.692-14.487,17.867-20.765,27.042c-12.072,18.833-16.419,38.149-14.97,56.016c1.449,14.487,6.278,28.008,14.004,39.598
		c7.726,11.59,17.867,21.73,30.423,29.457c13.521,8.692,29.457,14.487,46.358,16.901c-2.897,26.076-14.487,49.738-32.354,67.123
		c-19.799,19.799-47.324,31.871-77.746,31.871s-58.431-12.555-78.229-32.354s-32.354-47.807-32.354-78.229v-0.483v-68.571h37.183
		c14.97,0,28.491-6.278,38.149-15.936c9.658-9.658,15.936-23.179,15.936-38.149v-76.298c0.966-0.966,1.932-1.932,2.897-2.897
		c5.795-5.795,9.175-13.038,9.175-21.73c0-8.692-3.38-15.936-9.175-21.73c-5.795-5.795-13.038-9.175-21.73-9.175h-13.521V186.94
		c0-8.209-3.38-15.936-8.692-21.247l0,0l0,0l0,0c-5.312-5.312-13.038-8.692-21.247-8.692s-15.936,3.38-21.247,8.692l0,0l0,0l0,0
		c-5.312,5.312-8.692,13.038-8.692,21.247v61.811H80.238V186.94c0-8.209-3.38-15.936-8.692-21.247l0,0l0,0l0,0
		C66.234,160.38,58.508,157,50.299,157s-15.936,3.38-21.247,8.692l0,0l0,0l0,0c-5.312,5.312-8.692,13.038-8.692,21.247v61.811H6.838
		c-8.692,0-15.936,3.38-21.73,9.175c-5.795,5.795-9.175,13.038-9.175,21.73s3.38,15.936,9.175,21.73
		C-14.41,302.352-13.444,303.318-11.995,303.801z M406.194,457.845c-6.761,12.072-17.867,22.213-32.837,28.008
		c-4.829,1.932-10.141,3.38-15.936,4.829c5.795-10.141,9.658-20.765,13.038-30.905c0-0.483,0-0.483,0-0.966
		c9.175-30.423,8.692-60.845,3.38-89.336l18.35-19.316c5.312,9.175,9.658,18.35,13.521,27.525
		c4.829,12.072,7.726,24.145,8.692,35.734C415.852,430.32,412.955,445.29,406.194,457.845z M362.25,308.147
		c6.278,7.243,12.072,14.487,17.384,22.213l-12.072,12.555c-5.312-18.35-12.072-34.769-18.833-49.256
		C353.558,298.006,357.904,302.835,362.25,308.147z M323.619,294.143c9.658,18.833,20.282,44.427,26.559,72.435
		c0,0.966,0.483,1.932,0.483,2.897c3.863,19.316,5.312,39.598,2.897,59.879l-60.845-77.746
		C306.234,334.706,318.79,316.839,323.619,294.143z M265.188,455.913c-5.795-8.692-9.658-18.833-10.141-28.974
		c-0.966-13.038,2.415-27.525,11.59-41.529c3.38-5.312,7.243-10.624,11.59-15.453l68.571,88.37
		c-3.863,11.59-10.141,23.662-17.867,34.769c-14.97-1.449-28.491-6.278-40.563-14.004
		C279.192,472.815,270.983,465.089,265.188,455.913z M170.057,380.099c0,8.692-3.38,16.419-9.175,22.213
		c-5.312,5.795-13.521,9.175-21.73,9.175H42.089c-8.692,0-16.419-3.38-22.213-9.175c-5.795-5.795-9.175-13.521-9.175-22.213v-70.02
		h159.356V380.099z M123.699,186.94c0-1.932,0.966-3.863,1.932-5.312l0,0c1.449-1.449,2.897-1.932,5.312-1.932
		c1.932,0,3.863,0.966,5.312,1.932l0,0c1.449,1.449,1.932,2.897,1.932,5.312v61.811h-14.487V186.94z M42.572,186.94
		c0-1.932,0.966-3.863,1.932-5.312l0,0c1.449-1.449,2.897-1.932,5.312-1.932c1.932,0,3.863,0.966,5.312,1.932l0,0
		c1.449,1.449,1.932,2.897,1.932,5.312v61.811H42.572V186.94z M1.043,274.344c1.449-1.449,3.38-2.414,5.312-2.414h168.048
		c1.932,0,3.863,0.966,5.312,2.414c1.449,1.449,2.414,3.38,2.414,5.312c0,1.932-0.966,3.863-2.414,5.312
		c-1.449,1.449-3.38,2.414-5.312,2.414H6.355c-1.932,0-3.863-0.966-5.312-2.414c-1.449-1.449-2.414-3.38-2.414-5.312
		S-0.406,275.793,1.043,274.344z"/>
</g>
</svg>
