<?xml version="1.0" encoding="utf-8"?>
<!-- Generator: Adobe Illustrator 22.1.0, SVG Export Plug-In . SVG Version: 6.00 Build 0)  -->
<svg version="1.1" id="Capa_1" xmlns="http://www.w3.org/2000/svg" xmlns:xlink="http://www.w3.org/1999/xlink" x="0px" y="0px"
	 viewBox="-43 147 500 500" style="enable-background:new -43 147 500 500;" xml:space="preserve">
<g>
	<path d="M399,621H15c-4.4,0-8-3.6-8-8V165c0-4.4,3.6-8,8-8h384c4.4,0,8,3.6,8,8v448C407,617.4,403.4,621,399,621z M23,605h368V173
		H23V605z"/>
	<path d="M359,581H55c-4.4,0-8-3.6-8-8V381c0-4.4,3.6-8,8-8h304c4.4,0,8,3.6,8,8v192C367,577.4,363.4,581,359,581z M63,565h288V389
		H63V565z"/>
	<rect x="15" y="333" width="384" height="16"/>
	<rect x="15" y="221" width="384" height="16"/>
	<path d="M167,317c-17.6,0-32-14.4-32-32s14.4-32,32-32s32,14.4,32,32S184.6,317,167,317z M167,269c-8.8,0-16,7.2-16,16
		s7.2,16,16,16s16-7.2,16-16S175.8,269,167,269z"/>
	<path d="M87,317c-17.6,0-32-14.4-32-32s14.4-32,32-32s32,14.4,32,32S104.6,317,87,317z M87,269c-8.8,0-16,7.2-16,16s7.2,16,16,16
		s16-7.2,16-16S95.8,269,87,269z"/>
	<path d="M327,317c-17.6,0-32-14.4-32-32s14.4-32,32-32s32,14.4,32,32S344.6,317,327,317z M327,269c-8.8,0-16,7.2-16,16
		s7.2,16,16,16s16-7.2,16-16S335.8,269,327,269z"/>
	<path d="M247,317c-17.6,0-32-14.4-32-32s14.4-32,32-32s32,14.4,32,32S264.6,317,247,317z M247,269c-8.8,0-16,7.2-16,16
		s7.2,16,16,16s16-7.2,16-16S255.8,269,247,269z"/>
	<rect x="79" y="261" width="16" height="48"/>
	<rect x="159" y="261" width="16" height="48"/>
	<rect x="239" y="261" width="16" height="48"/>
	<rect x="319" y="261" width="16" height="48"/>
	<path d="M63,229H47v-32c0-4.4,3.6-8,8-8h24v16H63V229z"/>
	<path d="M175,229h-16v-24h-16v-16h24c4.4,0,8,3.6,8,8V229z"/>
	<rect x="103" y="189" width="16" height="40"/>
	<path d="M255,229h-16v-32c0-4.4,3.6-8,8-8h24v16h-16V229z"/>
	<path d="M367,229h-16v-24h-16v-16h24c4.4,0,8,3.6,8,8V229z"/>
	<rect x="295" y="189" width="16" height="40"/>
	<rect x="149.9" y="443" transform="matrix(0.7071 -0.7071 0.7071 0.7071 -265.8895 260.086)" width="62.2" height="16"/>
	<rect x="149.6" y="463" transform="matrix(0.7071 -0.7071 0.7071 0.7071 -271.8362 285.7335)" width="118.8" height="16"/>
	<rect x="206.7" y="485" transform="matrix(0.7071 -0.7071 0.7071 0.7071 -279.7836 310.5595)" width="56.6" height="16"/>
	<rect x="31" y="605" width="16" height="32"/>
	<rect x="367" y="613" width="16" height="24"/>
</g>
</svg>
