<?xml version="1.0" encoding="utf-8"?>
<!-- Generator: Adobe Illustrator 17.0.0, SVG Export Plug-In . SVG Version: 6.00 Build 0)  -->
<!DOCTYPE svg PUBLIC "-//W3C//DTD SVG 1.1//EN" "http://www.w3.org/Graphics/SVG/1.1/DTD/svg11.dtd">
<svg version="1.1" id="Capa_1" xmlns="http://www.w3.org/2000/svg" xmlns:xlink="http://www.w3.org/1999/xlink" x="0px" y="0px"
	 width="317.376px" height="512px" viewBox="0 0 317.376 512" enable-background="new 0 0 317.376 512" xml:space="preserve">
<path d="M317.373,388.699V70.22c0-19.207-15.625-34.834-34.833-34.834h-3.721l-8.066-16.13C264.816,7.378,252.877,0,239.597,0
	H77.777C64.498,0,52.56,7.378,46.622,19.256l-8.065,16.13h-3.723c-19.207,0-34.833,15.627-34.833,34.834v318.479
	c0,19.207,15.626,34.833,34.833,34.833h10.845L1.14,499.51c-2.317,3.952-0.991,9.033,2.96,11.35c1.318,0.773,2.763,1.14,4.187,1.14
	c2.846,0,5.619-1.468,7.162-4.101l49.459-84.367h187.561l49.457,84.367c1.544,2.634,4.316,4.101,7.163,4.101
	c1.425,0,2.868-0.367,4.187-1.14c3.951-2.317,5.276-7.398,2.96-11.35l-44.539-75.978h10.844
	C301.748,423.532,317.373,407.906,317.373,388.699z M115.398,406.945l4.773-28.638c0.759-4.551,4.658-7.854,9.272-7.854h58.489
	c4.613,0,8.513,3.303,9.272,7.854l4.773,28.638H115.398z M218.792,406.945l-5.227-31.365c-2.097-12.583-12.877-21.715-25.633-21.715
	h-58.489c-12.756,0-23.537,9.132-25.633,21.715l-5.228,31.365H34.834c-10.06,0-18.246-8.186-18.246-18.246V70.22
	c0-10.061,8.186-18.246,18.246-18.246h168.09c4.58,0,8.293-3.714,8.293-8.294s-3.713-8.294-8.293-8.294H57.102l4.356-8.712
	c3.111-6.222,9.365-10.087,16.32-10.087h161.821c6.955,0,13.209,3.865,16.319,10.087l4.358,8.712H238.31
	c-4.58,0-8.293,3.714-8.293,8.294s3.713,8.294,8.293,8.294h44.23c10.061,0,18.247,8.185,18.247,18.246v318.479
	c0,10.06-8.186,18.246-18.247,18.246H218.792z"/>
<path d="M256.001,477.718H61.375c-4.581,0-8.294,3.714-8.294,8.294c0,4.58,3.713,8.294,8.294,8.294h194.626
	c4.58,0,8.294-3.714,8.294-8.294C264.295,481.432,260.582,477.718,256.001,477.718"/>
<path d="M238.307,458.919c4.58,0,8.294-3.713,8.294-8.294c0-4.58-3.714-8.293-8.294-8.293H79.068c-4.581,0-8.294,3.713-8.294,8.293
	c0,4.581,3.713,8.294,8.294,8.294H238.307z"/>
<path d="M264.847,106.16H52.528c-9.452,0-17.14,7.689-17.14,17.14v88.466c0,9.452,7.69,17.141,17.14,17.141h212.319
	c9.451,0,17.141-7.689,17.141-17.141V123.3C281.988,113.849,274.298,106.16,264.847,106.16z M150.393,212.32H52.528
	c-0.305,0-0.553-0.249-0.553-0.554V123.3c0-0.305,0.248-0.553,0.553-0.553h97.865V212.32z M265.4,211.766
	c0,0.305-0.248,0.554-0.553,0.554h-97.866v-89.573h97.866c0.305,0,0.553,0.248,0.553,0.553V211.766z"/>
<path d="M132.148,87.36h53.08c4.581,0,8.294-3.713,8.294-8.293c0-4.581-3.713-8.294-8.294-8.294h-53.08
	c-4.58,0-8.293,3.713-8.293,8.294C123.855,83.647,127.568,87.36,132.148,87.36"/>
<path d="M61.375,87.36h0.088c4.581,0,8.25-3.713,8.25-8.293c0-4.581-3.758-8.294-8.338-8.294c-4.581,0-8.294,3.713-8.294,8.294
	C53.081,83.647,56.794,87.36,61.375,87.36"/>
<path d="M256.001,87.36h0.088c4.581,0,8.25-3.713,8.25-8.293c0-4.581-3.758-8.294-8.338-8.294c-4.58,0-8.294,3.713-8.294,8.294
	C247.707,83.647,251.421,87.36,256.001,87.36"/>
<path d="M61.374,283.092c-14.329,0-25.986,11.658-25.986,25.987s11.657,25.987,25.986,25.987c14.33,0,25.987-11.658,25.987-25.987
	S75.704,283.092,61.374,283.092z M61.374,318.478c-5.183,0-9.399-4.215-9.399-9.399c0-5.183,4.216-9.399,9.399-9.399
	c5.184,0,9.4,4.216,9.4,9.399C70.774,314.263,66.558,318.478,61.374,318.478z"/>
<path d="M61.375,388.146c9.452,0,17.14-7.689,17.14-17.141c0-9.452-7.688-17.14-17.14-17.14s-17.141,7.688-17.141,17.14
	C44.234,380.458,51.924,388.146,61.375,388.146"/>
<path d="M256.001,283.091c-14.329,0-25.987,11.658-25.987,25.988c0,14.329,11.658,25.987,25.987,25.987
	c14.329,0,25.987-11.658,25.987-25.987C281.988,294.75,270.33,283.091,256.001,283.091z M256.001,318.479
	c-5.184,0-9.399-4.216-9.399-9.399c0-5.183,4.215-9.4,9.399-9.4c5.183,0,9.399,4.217,9.399,9.4
	C265.4,314.263,261.185,318.479,256.001,318.479z"/>
<path d="M256.001,353.865c-9.451,0-17.141,7.688-17.141,17.141c0,9.451,7.69,17.14,17.141,17.14c9.451,0,17.141-7.689,17.141-17.14
	C273.142,361.553,265.452,353.865,256.001,353.865"/>
<path d="M202.921,318.479h-88.466c-4.58,0-8.294,3.714-8.294,8.294c0,4.58,3.714,8.294,8.294,8.294h88.466
	c4.58,0,8.294-3.714,8.294-8.294C211.215,322.193,207.503,318.479,202.921,318.479"/>
<path d="M167.534,380.405h-17.693c-4.58,0-8.294,3.713-8.294,8.294c0,4.58,3.714,8.293,8.294,8.293h17.693
	c4.581,0,8.294-3.713,8.294-8.293C175.828,384.118,172.116,380.405,167.534,380.405"/>
<path d="M202.922,283.092h-88.467c-4.58,0-8.294,3.714-8.294,8.294c0,4.581,3.714,8.294,8.294,8.294h88.467
	c4.581,0,8.294-3.713,8.294-8.294C211.216,286.806,207.504,283.092,202.922,283.092"/>
</svg>
