<?xml version="1.0" encoding="utf-8"?>
<!-- Generator: Adobe Illustrator 17.0.0, SVG Export Plug-In . SVG Version: 6.00 Build 0)  -->
<!DOCTYPE svg PUBLIC "-//W3C//DTD SVG 1.1//EN" "http://www.w3.org/Graphics/SVG/1.1/DTD/svg11.dtd">
<svg version="1.1" id="Layer_1" xmlns="http://www.w3.org/2000/svg" xmlns:xlink="http://www.w3.org/1999/xlink" x="0px" y="0px"
	 width="400px" height="400px" viewBox="0 0 400 400" enable-background="new 0 0 400 400" xml:space="preserve">
<path d="M395.993,78.43c-14.422,6.397-29.92,10.72-46.191,12.665c16.605-9.955,29.357-25.711,35.361-44.493
	c-15.542,9.215-32.751,15.913-51.075,19.513c-14.667-15.628-35.565-25.393-58.699-25.393c-44.411,0-80.418,36.007-80.418,80.418
	c0,6.303,0.711,12.443,2.085,18.33c-66.837-3.358-126.096-35.375-165.76-84.031c-6.922,11.881-10.887,25.692-10.887,40.432
	c0,27.899,14.194,52.514,35.775,66.938c-13.184-0.42-25.586-4.038-36.426-10.062c-0.006,0.338-0.006,0.678-0.006,1.016
	c0,38.964,27.72,71.46,64.511,78.86c-6.749,1.833-13.854,2.814-21.187,2.814c-5.183,0-10.223-0.501-15.135-1.446
	c10.237,31.952,39.937,55.204,75.129,55.852c-27.527,21.57-62.202,34.428-99.878,34.428c-6.492,0-12.895-0.383-19.186-1.128
	c35.587,22.821,77.858,36.131,123.275,36.131c147.925,0,228.813-122.534,228.813-228.815c0-3.482-0.081-6.953-0.236-10.4
	C371.576,108.725,385.208,94.559,395.993,78.43z"/>
</svg>
